<svg xmlns="http://www.w3.org/2000/svg" xmlns:xlink="http://www.w3.org/1999/xlink" preserveAspectRatio="xMidYMid" width="36" height="46" viewBox="0 0 36 46">
  <path d="M35.992,16.889 C35.992,16.889 35.992,18.848 35.992,18.848 C35.992,20.117 35.484,21.274 34.682,22.140 C34.949,23.294 35.074,24.496 35.074,25.731 C35.074,28.120 34.502,30.848 33.456,33.510 C33.428,33.664 33.375,33.818 33.299,33.965 C33.274,34.007 33.248,34.051 33.222,34.089 C30.618,40.296 25.477,45.993 19.134,45.993 C19.075,45.993 18.835,45.993 18.775,45.993 C12.431,45.993 7.289,40.296 4.687,34.089 C4.659,34.051 4.634,34.005 4.611,33.963 C4.533,33.817 4.481,33.663 4.454,33.509 C3.408,30.846 2.837,28.120 2.837,25.730 C2.837,24.496 2.970,23.293 3.238,22.139 C2.437,21.273 1.942,20.117 1.942,18.847 C1.942,18.847 1.942,16.889 1.942,16.889 C1.942,16.316 2.041,15.765 2.225,15.255 C0.859,13.968 0.006,12.143 0.006,10.117 C0.006,6.218 3.167,3.057 7.067,3.057 C8.610,3.057 10.036,3.552 11.197,4.391 C13.396,1.813 15.988,0.005 18.767,0.005 C18.830,0.005 18.893,0.007 18.956,0.008 C19.018,0.006 19.082,0.005 19.145,0.005 C24.296,0.005 28.822,6.225 31.369,12.040 C33.931,12.171 35.993,14.294 35.993,16.889 C35.993,16.889 35.992,16.889 35.992,16.889 ZM18.755,42.982 C18.773,42.982 19.112,42.982 19.130,42.982 C23.570,42.982 27.689,38.902 30.028,33.969 C25.873,31.921 22.133,31.026 18.950,31.026 C15.767,31.026 12.021,31.917 7.865,33.966 C10.206,38.898 14.315,42.982 18.755,42.982 ZM6.740,31.127 C11.228,28.951 15.347,28.074 18.788,28.002 C18.788,28.002 19.076,28.002 19.076,28.002 C22.587,28.074 26.657,28.951 31.145,31.127 C31.715,29.317 32.036,27.470 32.038,25.736 C32.038,25.024 31.983,24.322 31.871,23.641 C31.621,23.681 31.366,23.701 31.105,23.701 C31.105,23.701 23.383,23.701 23.383,23.701 C23.451,23.988 23.487,24.243 23.487,24.537 C23.487,25.836 22.770,26.890 21.884,26.890 C20.997,26.890 20.278,25.836 20.278,24.537 C20.278,24.243 20.317,23.988 20.383,23.701 C20.383,23.701 17.528,23.701 17.528,23.701 C17.595,23.988 17.632,24.243 17.632,24.537 C17.632,25.836 16.914,26.890 16.027,26.890 C15.141,26.890 14.422,25.836 14.422,24.537 C14.422,24.243 14.459,23.988 14.527,23.701 C14.527,23.701 6.804,23.701 6.804,23.701 C6.544,23.701 6.283,23.683 6.036,23.643 C5.923,24.324 5.859,25.024 5.859,25.736 C5.859,27.471 6.169,29.317 6.740,31.127 ZM7.066,5.580 C4.559,5.580 2.526,7.612 2.526,10.118 C2.526,11.288 2.969,12.354 3.696,13.159 C4.481,12.507 5.470,12.096 6.552,12.041 C7.391,10.125 8.444,8.164 9.663,6.398 C8.929,5.883 8.033,5.580 7.066,5.580 ZM32.911,16.889 C32.911,15.885 32.104,15.099 31.103,15.099 C31.103,15.099 6.803,15.099 6.803,15.099 C5.801,15.099 5.023,15.885 5.023,16.889 C5.023,16.889 5.023,18.847 5.023,18.847 C5.023,19.851 5.802,20.690 6.803,20.690 C6.803,20.690 31.103,20.690 31.103,20.690 C32.104,20.690 32.911,19.850 32.911,18.847 C32.911,18.847 32.911,16.889 32.911,16.889 ZM21.583,34.254 C20.891,34.855 19.987,35.227 19.000,35.227 C18.012,35.227 17.108,34.855 16.416,34.254 C15.871,33.781 16.244,32.876 16.964,32.876 C16.964,32.876 21.035,32.876 21.035,32.876 C21.755,32.876 22.127,33.781 21.583,34.254 Z" id="path-1" class="cls-2" fill-rule="evenodd"/>
</svg>
