<svg xmlns="http://www.w3.org/2000/svg" xmlns:xlink="http://www.w3.org/1999/xlink" preserveAspectRatio="xMidYMid" width="46" height="43" viewBox="0 0 46 43">
  <path d="M42.201,11.564 C41.143,11.564 40.284,10.720 40.284,9.681 C40.284,8.641 41.143,7.798 42.201,7.798 C43.260,7.798 44.119,8.641 44.119,9.681 C44.119,10.720 43.260,11.564 42.201,11.564 ZM37.860,7.033 C37.248,7.033 36.752,6.546 36.752,5.944 C36.752,5.343 37.248,4.856 37.860,4.856 C38.472,4.856 38.969,5.343 38.969,5.944 C38.969,6.546 38.472,7.033 37.860,7.033 ZM35.584,11.628 C34.932,11.628 34.404,11.109 34.404,10.469 C34.404,9.829 34.932,9.310 35.584,9.310 C36.235,9.310 36.764,9.829 36.764,10.469 C36.764,11.109 36.235,11.628 35.584,11.628 ZM45.958,15.374 C45.842,21.126 44.139,28.974 40.708,30.701 C40.708,30.701 40.696,40.212 40.696,40.212 C40.696,40.212 44.229,40.217 44.229,40.217 C45.016,40.217 45.653,40.840 45.653,41.614 C45.651,42.379 45.020,42.999 44.241,43.007 C44.237,43.007 44.232,43.007 44.226,43.007 C44.226,43.007 34.311,42.999 34.311,42.999 C33.524,42.999 32.887,42.379 32.887,41.607 C32.888,40.840 33.519,40.228 34.299,40.220 C34.303,40.220 34.308,40.220 34.314,40.220 C34.314,40.220 37.846,40.217 37.846,40.217 C37.846,40.217 37.859,30.703 37.859,30.703 C34.436,28.967 32.752,21.122 32.649,15.359 C32.649,15.359 32.624,13.933 32.624,13.933 C32.624,13.933 45.988,13.950 45.988,13.950 C45.988,13.950 45.958,15.374 45.958,15.374 ZM35.554,16.735 C35.644,18.264 35.835,19.698 36.083,21.002 C36.083,21.002 42.509,21.010 42.509,21.010 C42.764,19.705 42.957,18.271 43.051,16.743 C43.051,16.743 35.554,16.735 35.554,16.735 ZM39.348,19.615 C38.845,19.615 38.438,19.215 38.438,18.721 C38.438,18.227 38.845,17.826 39.348,17.826 C39.851,17.826 40.259,18.227 40.259,18.721 C40.259,19.215 39.851,19.615 39.348,19.615 ZM29.604,42.989 C29.604,42.989 16.427,42.989 16.427,42.989 C15.566,42.989 14.845,42.311 14.845,41.464 C14.845,41.464 14.845,35.820 14.845,35.820 C14.845,31.343 16.014,26.940 18.226,23.026 C18.226,23.026 19.952,19.992 19.952,19.992 C19.952,19.992 19.952,7.262 19.952,7.262 C19.952,7.262 26.078,7.262 26.078,7.262 C26.078,7.262 26.078,19.992 26.078,19.992 C26.078,19.992 27.798,23.026 27.798,23.026 C30.014,26.940 31.182,31.341 31.182,35.820 C31.182,35.820 31.182,41.464 31.182,41.464 C31.182,42.310 30.465,42.989 29.604,42.989 ZM29.205,33.249 C29.205,32.650 28.695,32.146 28.084,32.147 C28.084,32.147 26.417,32.147 26.417,32.147 C26.015,29.828 24.644,28.127 23.015,28.127 C21.386,28.127 20.016,29.828 19.614,32.147 C19.614,32.147 17.948,32.147 17.948,32.147 C17.339,32.147 16.823,32.650 16.823,33.249 C16.823,33.249 16.823,33.880 16.823,33.880 C16.823,34.478 17.338,34.968 17.948,34.968 C17.948,34.968 19.615,34.968 19.615,34.968 C20.016,37.288 21.387,38.991 23.016,38.991 C24.645,38.991 26.017,37.288 26.418,34.968 C26.418,34.968 28.086,34.968 28.086,34.968 C28.695,34.968 29.205,34.478 29.205,33.880 C29.205,33.880 29.205,33.249 29.205,33.249 ZM18.802,1.206 C18.802,0.535 19.375,-0.010 20.058,-0.010 C20.058,-0.010 25.973,-0.010 25.973,-0.010 C26.655,-0.010 27.225,0.535 27.225,1.206 C27.225,1.206 27.225,5.507 27.225,5.507 C27.225,5.507 18.802,5.507 18.802,5.507 C18.802,5.507 18.802,1.206 18.802,1.206 ZM8.136,30.703 C8.136,30.703 8.148,40.217 8.148,40.217 C8.148,40.217 11.681,40.220 11.681,40.220 C11.686,40.220 11.692,40.220 11.696,40.220 C12.476,40.227 13.107,40.840 13.108,41.607 C13.108,42.379 12.470,42.999 11.684,42.999 C11.684,42.999 1.768,43.007 1.768,43.007 C1.763,43.007 1.757,43.007 1.753,43.007 C0.974,42.999 0.344,42.379 0.342,41.614 C0.342,40.840 0.978,40.217 1.766,40.217 C1.766,40.217 5.299,40.212 5.299,40.212 C5.299,40.212 5.287,30.701 5.287,30.701 C1.858,28.974 0.153,21.126 0.037,15.374 C0.037,15.374 0.007,13.951 0.007,13.951 C0.007,13.951 13.371,13.933 13.371,13.933 C13.371,13.933 13.346,15.359 13.346,15.359 C13.243,21.122 11.559,28.967 8.136,30.703 ZM2.945,16.743 C3.041,18.271 3.234,19.706 3.488,21.010 C3.488,21.010 9.912,21.002 9.912,21.002 C10.162,19.697 10.351,18.264 10.441,16.735 C10.441,16.735 2.945,16.743 2.945,16.743 ZM6.647,19.615 C6.144,19.615 5.737,19.215 5.737,18.721 C5.737,18.227 6.144,17.826 6.647,17.826 C7.150,17.826 7.558,18.227 7.558,18.721 C7.558,19.215 7.150,19.615 6.647,19.615 ZM10.412,11.628 C9.760,11.628 9.232,11.109 9.232,10.469 C9.232,9.829 9.760,9.310 10.412,9.310 C11.064,9.310 11.592,9.829 11.592,10.469 C11.592,11.109 11.064,11.628 10.412,11.628 ZM8.137,7.033 C7.524,7.033 7.028,6.546 7.028,5.944 C7.028,5.343 7.524,4.856 8.137,4.856 C8.749,4.856 9.245,5.343 9.245,5.944 C9.245,6.546 8.749,7.033 8.137,7.033 ZM3.795,11.564 C2.737,11.564 1.878,10.720 1.878,9.681 C1.878,8.641 2.737,7.798 3.795,7.798 C4.854,7.798 5.713,8.641 5.713,9.681 C5.713,10.720 4.854,11.564 3.795,11.564 Z" id="path-1" class="cls-2" fill-rule="evenodd"/>
</svg>
